{
  "hashtag": "JASMONI",
  "digital_invite_img": "https://bitbucket.org/eden2077/memories/raw/0e440e357b3cc0457a979ecd7edf23bb43dde1af/resources/digital_invite.png",
  "event_map": "https://bitbucket.org/eden2077/memories/raw/0e440e357b3cc0457a979ecd7edf23bb43dde1af/resources/map.png",
  "church_img": "https://bitbucket.org/eden2077/memories/raw/5dbd135fbd271272017725cb197679927a27cbf6/resources/csi.jpeg"
}